^C:\USERS\АЛЬБЕРТ\DESKTOP\ПРОГРАММИРОВАНИЕ\C++\GAME\GAME\GAME\DEBUG\MAIN.OBJ
C:\USERS\Альберт\DESKTOP\Программирование\C++\GAME\GAME\DEBUG\GAME.ILK
C:\USERS\Альберт\DESKTOP\Программирование\C++\GAME\GAME\DEBUG\GAME.EXE
C:\USERS\АЛЬБЕРТ\DESKTOP\ПРОГРАММИРОВАНИЕ\C++\GAME\GAME\DEBUG\GAME.PDB
